{
	"author": {
		"email": "support@mooregoodideas.com",
		"name": "Moore Good Ideas, Inc",
		"url": "https://www.mooregoodideas.com"
	},
	"bugs": "https://gitlab.com/mgi/gpm-packages/progress-bar/issues",
	"contributors": [
		{
			"email": "derek@mooregoodideas.com",
			"name": "Derek Trepanier",
			"url": "http://www.mooregoodideas.com/"
		}
	],
	"description": "A simple progress bar API",
	"files": [
		"Progress"
	],
	"license": "BSD-3-Clause",
	"lvversion": ">=17",
	"name": "@mgi/progress-bar",
	"repository": "https://gitlab.com/mgi/gpm-packages/progress-bar",
	"version": "0.1.1"
}